﻿[Event "?"]
[Site "?"]
[Date "????.??.??"]
[Round "?"]
[White "Vorteilhafter Abtausch (z.B)"]
[Black "?"]
[Result "*"]
[Annotator "Notebook,A"]
[SetUp "1"]
[FEN "6k1/4p1p1/5n2/4P3/1p6/1P3N2/6P1/6K1 w - - 0 1"]
[PlyCount "1"]
[EventDate "2007.03.13"]

{[%tqu "Mache einen vorteilhaften Abtausch für Weiß!","Schlage den Springer!",
"Mit dem Bauern,natürlich!",exf6,"",10]} 1. exf6 *

[Event "?"]
[Site "?"]
[Date "????.??.??"]
[Round "?"]
[White "Vorteilhafter Abtausch1"]
[Black "?"]
[Result "*"]
[Annotator "Notebook,A"]
[SetUp "1"]
[FEN "4k3/2p3p1/3r1nr1/4P3/8/1B3N2/2P2K2/3R4 w - - 0 1"]
[PlyCount "1"]
[EventDate "2007.03.13"]

{[%tqu "Vorteilhafter Abtausch","Schlage die stärkereFigur","Schlage mit
deiner schwächeren Figur!",exd6,"",10]} 1. exd6 *

[Event "?"]
[Site "?"]
[Date "????.??.??"]
[Round "?"]
[White "Vorteilhafter Abtausch2"]
[Black "?"]
[Result "*"]
[Annotator "Notebook,A"]
[SetUp "1"]
[FEN "5r1k/8/6p1/4n2p/8/3R1B1P/2P3P1/7K b - - 0 1"]
[PlyCount "1"]
[EventDate "2007.03.13"]

{[%tqu "Vorteilhafter Abtausch für Schwarz","Schlage die stärkere Figur!",
"Schlage mit deiner schwächeren Figur!",Nxd3,"",10]} 1... Nxd3 *

[Event "?"]
[Site "?"]
[Date "????.??.??"]
[Round "?"]
[White "Vorteilhafter Abtausch4"]
[Black "?"]
[Result "*"]
[Annotator "Notebook,A"]
[SetUp "1"]
[FEN "r3r1k1/p5pp/1p3n2/8/8/1P4P1/2P3BP/3RR1K1 w - - 0 1"]
[PlyCount "1"]
[EventDate "2007.03.13"]

{[%tqu "Vorteilhafter Abtausch für Weiß","Schlage die stsärke Figur von
Schwarz!","Schlage aber mit deiner schwächeren Figur!",Bxa8,"",10]} 1. Bxa8 *

[Event "?"]
[Site "?"]
[Date "????.??.??"]
[Round "?"]
[White "Vorteilhafter Abtausch4"]
[Black "?"]
[Result "*"]
[Annotator "Notebook,A"]
[SetUp "1"]
[FEN "3r2k1/1p1q1ppp/2p2n2/8/8/1B3Q2/1PP3PP/3R2K1 w - - 0 1"]
[PlyCount "1"]
[EventDate "2007.03.13"]

{[%tqu "Vorteilhafter Abtausch1","Schlage die stärkste Figur von Schwarz!",
"Wie wäre es mit dem Turm!!",Rxd7,"",10]} 1. Rxd7 *

[Event "?"]
[Site "?"]
[Date "????.??.??"]
[Round "?"]
[White "Vorteilhafter Abtausch5"]
[Black "?"]
[Result "*"]
[Annotator "Notebook,A"]
[SetUp "1"]
[FEN "6k1/5pp1/2n1p2p/1p1r4/8/2N5/1PP2PPP/4R1K1 w - - 0 1"]
[PlyCount "1"]
[EventDate "2007.03.13"]

{[%tqu "Vorteilhafter Abtausch1","Schlage die stärkere Figur von Schwarz!",
"Schlage mit deiner schwächeren Figur!",Nxd5,"",10]} 1. Nxd5 *

[Event "?"]
[Site "?"]
[Date "????.??.??"]
[Round "?"]
[White "Vorteilhafter Abtausch6"]
[Black "?"]
[Result "*"]
[Annotator "Notebook,A"]
[SetUp "1"]
[FEN "r2r2k1/1pp2ppp/7b/8/8/2N4P/1PP2PP1/2RR2K1 b - - 0 1"]
[PlyCount "1"]
[EventDate "2007.03.13"]

{[%tqu "Vorteilhafter Abtausch1","Schlage die stärkere Figur!","Schlage mit
deiner schwächeren Figur!",Bxc1,"",10]} 1... Bxc1 *

[Event "?"]
[Site "?"]
[Date "????.??.??"]
[Round "?"]
[White "Vorteilhafter Abtausch7"]
[Black "?"]
[Result "*"]
[Annotator "Notebook,A"]
[SetUp "1"]
[FEN "6k1/5p2/6p1/6Pp/5q1P/7P/r4QK1/5R2 b - - 0 1"]
[PlyCount "1"]
[EventDate "2007.03.13"]

{[%tqu "Vorteilhafter Abtausch für Schwarz","Schlage die stärkste Figur von
Schwarz!","Schlage mit deiner schwächeren Figur!",Rxf2+,"",10]} 1... Rxf2+ *

[Event "?"]
[Site "?"]
[Date "????.??.??"]
[Round "?"]
[White "Vorteilhafter Abtausch8"]
[Black "?"]
[Result "*"]
[Annotator "Notebook,A"]
[SetUp "1"]
[FEN "4r1k1/3b1ppp/8/7n/3pN3/2B5/1P3PPP/4R1K1 b - - 0 1"]
[PlyCount "1"]
[EventDate "2007.03.13"]

{[%tqu "Vorteilhafter Abtausch1 für Schwarz","Schlage die schwächere Figur von
Weiß!","Schlage mit deiner schwächsten Figur!",dxc3,"",10]} 1... dxc3 *

[Event "?"]
[Site "?"]
[Date "????.??.??"]
[Round "?"]
[White "Vorteilhafter Abtausch9"]
[Black "?"]
[Result "*"]
[Annotator "Notebook,A"]
[SetUp "1"]
[FEN "2n1r1k1/1pp2ppp/4q3/1r6/3N4/8/1P3PPP/R2RQ1K1 w - - 0 1"]
[PlyCount "1"]
[EventDate "2007.03.13"]

{[%tqu "Vorteilhafter Abtausch1 für Weiß","Schlage die stärkste Figur von
Schwarz!","Schlage mit deiner schwächeren Figur!",Nxe6,"",10]} 1. Nxe6 *

[Event "?"]
[Site "?"]
[Date "????.??.??"]
[Round "?"]
[White "Vorteilhafter Abtausch10"]
[Black "?"]
[Result "*"]
[Annotator "Notebook,A"]
[SetUp "1"]
[FEN "1r1q1rk1/2p2ppp/3b4/4R3/3P4/Q1B2RP1/1PP2P2/6K1 b - - 0 1"]
[PlyCount "1"]
[EventDate "2007.03.13"]

{[%tqu "Vorteilhafter Abtausch1","Schlage die stärkste Figur von Weiß!","Mit
dem Läufer, natürlich!",Bxa3,"",10]} 1... Bxa3 *

[Event "?"]
[Site "?"]
[Date "????.??.??"]
[Round "?"]
[White "Vorteilhafter Abtausch11"]
[Black "?"]
[Result "*"]
[Annotator "Notebook,A"]
[SetUp "1"]
[FEN "2r5/5pkp/5bp1/8/3p4/2N3P1/1P3P1P/2R3K1 b - - 0 1"]
[PlyCount "1"]
[EventDate "2007.03.13"]

{[%tqu "Vorteilhafter Abtausch1","Schlage den Springer!","Mit einer anderen
Figur!",dxc3,"",10]} 1... dxc3 *

[Event "?"]
[Site "?"]
[Date "????.??.??"]
[Round "?"]
[White "Vorteilhafter Abtausch12"]
[Black "?"]
[Result "*"]
[Annotator "Notebook,A"]
[SetUp "1"]
[FEN "4r1k1/4rp1p/5bp1/3b4/2N1R3/1P2RBP1/5P1P/6K1 b - - 0 1"]
[PlyCount "1"]
[EventDate "2007.03.13"]

{[%tqu "Vorteilhafter Abtausch1","Schlage die am Brett stärkste Figur!","Mit
dem weißfeldrigen Läufer!",Bxe4,"",10]} 1... Bxe4 *

[Event "?"]
[Site "?"]
[Date "????.??.??"]
[Round "?"]
[White "Matt in einem mit der Dame1"]
[Black "?"]
[Result "*"]
[Annotator "Notebook,A"]
[SetUp "1"]
[FEN "k7/8/K7/8/8/8/2Q5/8 w - - 0 1"]
[PlyCount "1"]
[EventDate "2007.03.13"]

{[%tqu "Matt in einem mit der Dame","","",Qc8#,"",10]} 1. Qc8# *

[Event "?"]
[Site "?"]
[Date "????.??.??"]
[Round "?"]
[White "Matt in einem mit der Dame2"]
[Black "?"]
[Result "*"]
[Annotator "Notebook,A"]
[SetUp "1"]
[FEN "3k4/8/3K4/8/3Q4/8/8/8 w - - 0 1"]
[PlyCount "1"]
[EventDate "2007.03.13"]

{[%tqu "Matt in einem mit der Dame","","",Qh8#,"",10]} 1. Qh8# *

[Event "?"]
[Site "?"]
[Date "????.??.??"]
[Round "?"]
[White "Matt in einem mit der Dame3"]
[Black "?"]
[Result "*"]
[Annotator "Notebook,A"]
[SetUp "1"]
[FEN "4k3/8/3K4/8/7Q/8/8/8 w - - 0 1"]
[PlyCount "1"]
[EventDate "2007.03.13"]

{[%tqu "Matt in einem mit der Dame","","",Qe7#,"",10]} 1. Qe7# *

[Event "?"]
[Site "?"]
[Date "????.??.??"]
[Round "?"]
[White "Matt in einem mit der Dame4"]
[Black "?"]
[Result "*"]
[Annotator "Notebook,A"]
[SetUp "1"]
[FEN "5k2/1Q6/4K3/8/8/8/8/8 w - - 0 1"]
[PlyCount "1"]
[EventDate "2007.03.13"]

{[%tqu "Matt in einem mit der Dame","","",Qf7#,"",10]} 1. Qf7# *

[Event "?"]
[Site "?"]
[Date "????.??.??"]
[Round "?"]
[White "Matt in einem mit der Dame5"]
[Black "?"]
[Result "*"]
[Annotator "Notebook,A"]
[SetUp "1"]
[FEN "k7/7Q/2K5/8/8/8/8/8 w - - 0 1"]
[PlyCount "1"]
[EventDate "2007.03.13"]

{[%tqu "Matt in einem mit der Dame","","",Qb7#,"",10]} 1. Qb7# *

[Event "?"]
[Site "?"]
[Date "????.??.??"]
[Round "?"]
[White "Matt in einem mit der Dame6"]
[Black "?"]
[Result "*"]
[Annotator "Notebook,A"]
[SetUp "1"]
[FEN "8/8/8/5Q2/8/2K5/8/3k4 w - - 0 1"]
[PlyCount "1"]
[EventDate "2007.03.13"]

{[%tqu "Matt in einem mit der Dame","","",Qf1#,"",10]} 1. Qf1# *

[Event "?"]
[Site "?"]
[Date "????.??.??"]
[Round "?"]
[White "Matt in einem mit der Dame7"]
[Black "?"]
[Result "*"]
[Annotator "Notebook,A"]
[SetUp "1"]
[FEN "4k3/8/3K4/8/8/1Q6/8/8 w - - 0 1"]
[PlyCount "1"]
[EventDate "2007.03.13"]

{[%tqu "Matt in einem mit der Dame","","",Qg8#,"",10]} 1. Qg8# *

[Event "?"]
[Site "?"]
[Date "????.??.??"]
[Round "?"]
[White "Matt in einem mit der Dame8"]
[Black "?"]
[Result "*"]
[Annotator "Notebook,A"]
[SetUp "1"]
[FEN "8/8/8/8/8/6K1/2Q5/7k w - - 0 1"]
[PlyCount "1"]
[EventDate "2007.03.13"]

{[%tqu "Matt in einem mit der Dame(fünf mal)","","",Qg2#,"",10]} 1. Qg2# *

[Event "?"]
[Site "?"]
[Date "????.??.??"]
[Round "?"]
[White "Matt in einem mit der Dame9"]
[Black "?"]
[Result "*"]
[Annotator "Notebook,A"]
[SetUp "1"]
[FEN "8/8/8/5K2/7k/8/4Q3/8 w - - 0 1"]
[PlyCount "1"]
[EventDate "2007.03.13"]

{[%tqu "Matt in einem mit der Dame (2 x)","","",Qh2#,"",10]} 1. Qh2# (1. Qg4#)
*

[Event "?"]
[Site "?"]
[Date "????.??.??"]
[Round "?"]
[White "Matt in einem mit der Dame10"]
[Black "?"]
[Result "*"]
[Annotator "Notebook,A"]
[SetUp "1"]
[FEN "8/8/8/k1KQ4/8/8/8/8 w - - 0 1"]
[PlyCount "1"]
[EventDate "2007.03.13"]

{[%tqu "Matt in einem mit der Dame( 2 x)","","",Qa2#,"",10]} 1. Qa2# (1. Qa8#)
*

[Event "?"]
[Site "?"]
[Date "????.??.??"]
[Round "?"]
[White "Matt in einem mit der Dame11"]
[Black "?"]
[Result "*"]
[Annotator "Notebook,A"]
[SetUp "1"]
[FEN "8/8/5K1k/8/8/6Q1/8/8 w - - 0 1"]
[PlyCount "1"]
[EventDate "2007.03.13"]

{[%tqu "Matt in einem mit der Dame (4 x)","","",Qh4#,"",10]} 1. Qh4# (1. Qh3#)
(1. Qh2#) (1. Qg6#) *

[Event "?"]
[Site "?"]
[Date "????.??.??"]
[Round "?"]
[White "Matt in einem mit der Dame12"]
[Black "?"]
[Result "*"]
[Annotator "Notebook,A"]
[SetUp "1"]
[FEN "8/k1K5/8/1Q6/8/8/8/8 w - - 0 1"]
[PlyCount "1"]
[EventDate "2007.03.13"]

{[%tqu "Matt in einem mit der Dame (3 x)","","",Qa5#,"",10]} 1. Qa5# (1. Qb7#)
(1. Qa4#) *

[Event "?"]
[Site "?"]
[Date "????.??.??"]
[Round "?"]
[White "Figur angreifen1"]
[Black "?"]
[Result "*"]
[SetUp "1"]
[FEN "7k/8/8/8/8/4K2B/8/3r4 b - - 0 1"]
[PlyCount "1"]
[EventDate "2007.03.13"]

{[%tqu "Greife eine Figur an!","","",Rh1,"",10]} 1... Rh1 *

[Event "?"]
[Site "?"]
[Date "????.??.??"]
[Round "?"]
[White "Figur angreifen2"]
[Black "?"]
[Result "*"]
[SetUp "1"]
[FEN "8/4k3/8/4q3/8/3K4/8/6N1 w - - 0 1"]
[PlyCount "1"]
[EventDate "2007.03.13"]

{[%tqu "Greife eine Figur an!","","",Nf3,"",10]} 1. Nf3 *

[Event "?"]
[Site "?"]
[Date "????.??.??"]
[Round "?"]
[White "Figur angreifen3"]
[Black "?"]
[Result "*"]
[SetUp "1"]
[FEN "8/5K2/8/5k2/2R5/8/8/7b b - - 0 1"]
[PlyCount "1"]
[EventDate "2007.03.13"]

{[%tqu "Greife eine Figur an!","","",Bd5+,"",10]} 1... Bd5+ *

[Event "?"]
[Site "?"]
[Date "????.??.??"]
[Round "?"]
[White "Figur angreifen4"]
[Black "?"]
[Result "*"]
[SetUp "1"]
[FEN "8/6p1/5q2/4kp2/8/4K1N1/8/8 w - - 0 1"]
[PlyCount "1"]
[EventDate "2007.03.13"]

{[%tqu "Greife eine Figur an!","","",Nh5,"",10]} 1. Nh5 *

[Event "?"]
[Site "?"]
[Date "????.??.??"]
[Round "?"]
[White "Figur angreifen5"]
[Black "?"]
[Result "*"]
[SetUp "1"]
[FEN "r6N/2r5/2p1p3/7K/N7/7k/8/8 w - - 0 1"]
[PlyCount "1"]
[EventDate "2007.03.13"]

{[%tqu "Greife eine Figur an!","","",Nb6,"",10]} 1. Nb6 *

[Event "?"]
[Site "?"]
[Date "????.??.??"]
[Round "?"]
[White "Figur angreifen6"]
[Black "?"]
[Result "*"]
[SetUp "1"]
[FEN "5k1N/6pp/8/8/6K1/8/8/8 b - - 0 1"]
[PlyCount "1"]
[EventDate "2007.03.13"]

{[%tqu "Greife eine Figur an!","","",Kg8,"",10]} 1... Kg8 *

[Event "?"]
[Site "?"]
[Date "????.??.??"]
[Round "?"]
[White "Verteidigen"]
[Black "?"]
[Result "*"]
[Annotator "Decken"]
[SetUp "1"]
[FEN "3r4/pp3pp1/1k5b/8/2pN4/5B2/PPP1KPPP/8 w - - 0 1"]
[PlyCount "1"]
[EventDate "2007.03.13"]

{[%tqu "Decke eine Figur!","","",c3,"",10]} 1. c3 *

[Event "?"]
[Site "?"]
[Date "????.??.??"]
[Round "?"]
[White "Verteidigen"]
[Black "?"]
[Result "*"]
[Annotator "Decken2"]
[SetUp "1"]
[FEN "6k1/4b1p1/3p3p/5n2/8/2PB2P1/2P2P1P/6K1 b - - 0 1"]
[PlyCount "1"]
[EventDate "2007.03.13"]

{[%tqu "Decke eine Figur","","",g6,"",10]} 1... g6 *

[Event "?"]
[Site "?"]
[Date "????.??.??"]
[Round "?"]
[White "Verteidigen"]
[Black "?"]
[Result "*"]
[Annotator "Decken3"]
[SetUp "1"]
[FEN "k3b3/ppn5/8/1P6/P7/3PP3/2R2K2/8 b - - 0 1"]
[PlyCount "1"]
[EventDate "2007.03.13"]

{[%tqu "Decke eine Figur!","","",Kb8,"",10]} 1... Kb8 *

[Event "?"]
[Site "?"]
[Date "????.??.??"]
[Round "?"]
[White "Verteidigen"]
[Black "?"]
[Result "*"]
[Annotator "Decken4"]
[SetUp "1"]
[FEN "4n1k1/5ppp/2p5/1rB5/p7/P3PP2/K5PP/5R2 w - - 0 1"]
[PlyCount "1"]
[EventDate "2007.03.13"]

{[%tqu "Decke eine Figur!","","",Rc1,"",10]} 1. Rc1 *

[Event "?"]
[Site "?"]
[Date "????.??.??"]
[Round "?"]
[White "Verteidigen"]
[Black "?"]
[Result "*"]
[Annotator "Decken5"]
[SetUp "1"]
[FEN "4b1k1/1p4pp/pp3b2/4N3/4p3/2P5/PP3BPP/6K1 w - - 0 1"]
[PlyCount "1"]
[EventDate "2007.03.13"]

{[%tqu "Decke eine Figur!","","",Bd4,"",10]} 1. Bd4 *

[Event "?"]
[Site "?"]
[Date "????.??.??"]
[Round "?"]
[White "Verteidigen"]
[Black "?"]
[Result "*"]
[Annotator "Decken6"]
[SetUp "1"]
[FEN "8/1p2k1pp/p2pbn2/4p3/4P3/4B3/PPP3PP/1N1K4 w - - 0 1"]
[PlyCount "1"]
[EventDate "2007.03.13"]

{[%tqu "Decke eine Figur","","",Nc3,"",10]} 1. Nc3 *

[Event "?"]
[Site "?"]
[Date "????.??.??"]
[Round "?"]
[White "Verteidigen"]
[Black "?"]
[Result "*"]
[Annotator "Decken7"]
[SetUp "1"]
[FEN "8/2r1b3/p2kpp1p/1p4p1/3Pb1P1/2P1PN1P/PP1R1P2/4B2K w - - 0 1"]
[PlyCount "1"]
[EventDate "2007.03.13"]

{[%tqu "Decke eine Figur!","","",Kg2,"",10]} 1. Kg2 *

[Event "?"]
[Site "?"]
[Date "????.??.??"]
[Round "?"]
[White "Verteidigen"]
[Black "?"]
[Result "*"]
[Annotator "Decken8"]
[SetUp "1"]
[FEN "2r2nk1/2P3pp/p7/8/8/P1N2R1P/6P1/6K1 w - - 0 1"]
[PlyCount "1"]
[EventDate "2007.03.13"]

{[%tqu "Decke eine Figur","","",Nd5,"",10]} 1. Nd5 *

[Event "?"]
[Site "?"]
[Date "????.??.??"]
[Round "?"]
[White "Verteidigen"]
[Black "?"]
[Result "*"]
[Annotator "Decken9"]
[SetUp "1"]
[FEN "8/3k2bp/2p1pp2/1pP5/3nBPP1/2B5/P4K1P/8 b - - 0 1"]
[PlyCount "1"]
[EventDate "2007.03.13"]

{[%tqu "Decke eine Figur!","","",f5,"",10]} 1... f5 *

[Event "?"]
[Site "?"]
[Date "????.??.??"]
[Round "?"]
[White "Verteidigen"]
[Black "?"]
[Result "*"]
[Annotator "Decken10"]
[SetUp "1"]
[FEN "r7/2p1k3/4p1np/1pP1Ppp1/pP1R4/P5P1/1B1K1P1P/8 w - - 0 1"]
[PlyCount "1"]
[EventDate "2007.03.13"]

{[%tqu "Decke eine Figur!","","",Rd3,"",10]} 1. Rd3 *

[Event "?"]
[Site "?"]
[Date "????.??.??"]
[Round "?"]
[White "Verteidigen"]
[Black "?"]
[Result "*"]
[Annotator "Decken11"]
[SetUp "1"]
[FEN "r7/3k3p/2p1p1b1/Pp6/8/2N1P2P/P5P1/3KB3 w - - 0 1"]
[PlyCount "1"]
[EventDate "2007.03.13"]

{[%tqu "Decke eine Figur!","","",Ne2,"",10]} 1. Ne2 *

[Event "?"]
[Site "?"]
[Date "????.??.??"]
[Round "?"]
[White "Verteidigen"]
[Black "?"]
[Result "*"]
[Annotator "Decken12"]
[SetUp "1"]
[FEN "5k2/5pp1/1p5p/pP1b1P2/6n1/2K3P1/3R4/4R3 b - - 0 1"]
[PlyCount "1"]
[EventDate "2007.03.13"]

{[%tqu "Decke eine Figur!","","",Nf6,"",10]} 1... Nf6 *

[Event "?"]
[Site "?"]
[Date "????.??.??"]
[Round "?"]
[White "Verteidigen"]
[Black "?"]
[Result "*"]
[Annotator "Wegziehen1"]
[SetUp "1"]
[FEN "8/1p4pp/1pb1p3/6k1/1P2P1P1/P5KP/1N6/8 w - - 0 1"]
[PlyCount "1"]
[EventDate "2007.03.13"]

{[%tqu "Ziehe weg!","","",e5,"",10]} 1. e5 *

[Event "?"]
[Site "?"]
[Date "????.??.??"]
[Round "?"]
[White "Verteidigen"]
[Black "?"]
[Result "*"]
[Annotator "Wegziehen2"]
[SetUp "1"]
[FEN "8/4kppp/1pp3n1/8/2N5/P3K3/5PPP/8 b - - 0 1"]
[PlyCount "1"]
[EventDate "2007.03.13"]

{[%tqu "Ziehe weg!","","",b5,"",10]} 1... b5 *

[Event "?"]
[Site "?"]
[Date "????.??.??"]
[Round "?"]
[White "Verteidigen"]
[Black "?"]
[Result "*"]
[Annotator "Wegziehen3"]
[SetUp "1"]
[FEN "8/p5kp/1p1r1pp1/1P6/2Pp4/3K2BB/7P/8 b - - 0 1"]
[PlyCount "1"]
[EventDate "2007.03.13"]

{[%tqu "Ziehe weg!","","",Rd8,"",10]} 1... Rd8 *

[Event "?"]
[Site "?"]
[Date "????.??.??"]
[Round "?"]
[White "Verteidigen"]
[Black "?"]
[Result "*"]
[Annotator "Wegziehen4"]
[SetUp "1"]
[FEN "5r2/8/2k3np/2pbR2p/3p4/3P2P1/2PNKN1P/8 w - - 0 1"]
[PlyCount "1"]
[EventDate "2007.03.13"]

{[%tqu "Ziehe weg!","","",Rxh5,"",10]} 1. Rxh5 *

[Event "?"]
[Site "?"]
[Date "????.??.??"]
[Round "?"]
[White "Verteidigen"]
[Black "?"]
[Result "*"]
[Annotator "Wegziehen5"]
[SetUp "1"]
[FEN "3k4/1bp3p1/8/pp1Np2P/8/P1P3P1/1P3K2/8 w - - 0 1"]
[PlyCount "1"]
[EventDate "2007.03.13"]

{[%tqu "Ziehe weg","","",Ne3,"",10]} 1. Ne3 *

[Event "?"]
[Site "?"]
[Date "????.??.??"]
[Round "?"]
[White "Verteidigen"]
[Black "?"]
[Result "*"]
[Annotator "Wegziehen8"]
[SetUp "1"]
[FEN "8/6k1/1p6/q3p3/2B1P3/2P2P2/R2K4/8 b - - 0 1"]
[PlyCount "1"]
[EventDate "2007.03.13"]

{[%tqu "Ziehe weg!","","",Qc5,"",10]} 1... Qc5 *

[Event "?"]
[Site "?"]
[Date "????.??.??"]
[Round "?"]
[White "Verteidigen"]
[Black "?"]
[Result "*"]
[Annotator "Wegziehen9"]
[SetUp "1"]
[FEN "7r/1p2kp2/1pb2pp1/n2Q4/3P1N1P/6P1/1P1K4/8 w - - 0 1"]
[PlyCount "1"]
[EventDate "2007.03.13"]

{[%tqu "Ziehe Weg!","","",Qa2,"",10]} 1. Qa2 *

[Event "?"]
[Site "?"]
[Date "????.??.??"]
[Round "?"]
[White "Verteidigen"]
[Black "?"]
[Result "*"]
[Annotator "Wegziehen10"]
[SetUp "1"]
[FEN "4r3/1k4bp/1p2b1p1/2p5/2P2p2/1P2N3/2P2PKP/3R1B2 w - - 0 1"]
[PlyCount "1"]
[EventDate "2007.03.13"]

{[%tqu "Ziehe weg!","","",Nd5,"",10]} 1. Nd5 *

[Event "?"]
[Site "?"]
[Date "????.??.??"]
[Round "?"]
[White "Verteidigen"]
[Black "?"]
[Result "*"]
[Annotator "Wegziehen11"]
[SetUp "1"]
[FEN "8/1np3kp/5pp1/3Q4/1p6/1P5P/4r1PK/8 b - - 0 1"]
[PlyCount "1"]
[EventDate "2007.03.13"]

{[%tqu "Ziehe weg!","","",Nd6,"",10]} 1... Nd6 *

[Event "?"]
[Site "?"]
[Date "????.??.??"]
[Round "?"]
[White "Verteidigen"]
[Black "?"]
[Result "*"]
[Annotator "Wegziehen12"]
[SetUp "1"]
[FEN "r7/4k3/7p/3b2p1/2pp4/5RP1/1PP2P2/1KB5 w - - 0 1"]
[PlyCount "1"]
[EventDate "2007.03.13"]

{[%tqu "Ziehe weg!","","",Ra3,"",10]} 1. Ra3 *

[Event "?"]
[Site "?"]
[Date "????.??.??"]
[Round "?"]
[White "Verteidigen"]
[Black "?"]
[Result "*"]
[Annotator "Wegziehen7"]
[SetUp "1"]
[FEN "8/p1p1k3/4p2p/4P1b1/2NP3P/1P4K1/8/8 b - - 0 1"]
[PlyCount "1"]
[EventDate "2007.03.13"]

{[%tqu "Ziehe weg!","","",Bc1,"",10]} 1... Bc1 *

[Event "?"]
[Site "?"]
[Date "????.??.??"]
[Round "?"]
[White "Verteidigen"]
[Black "?"]
[Result "*"]
[Annotator "Wegziehen6"]
[SetUp "1"]
[FEN "8/p1p1k2p/3n1pp1/P1bR4/P7/1K3P1N/6P1/8 b - - 0 1"]
[PlyCount "1"]
[EventDate "2007.03.13"]

{[%tqu "Ziehe weg!","","",Be3,"",10]} 1... Be3 *

[Event "?"]
[Site "?"]
[Date "????.??.??"]
[Round "?"]
[White "Verteidigen"]
[Black "?"]
[Result "*"]
[Annotator "Schlage den Angreifer! (1)"]
[SetUp "1"]
[FEN "8/1p2npk1/6p1/3Np3/8/4P1P1/1P3PK1/8 b - - 0 1"]
[PlyCount "1"]

{[%tqu "Schlage den Angreifer!","","",Nxd5,"",10]} 1... Nxd5 *

[Event "?"]
[Site "?"]
[Date "????.??.??"]
[Round "?"]
[White "Verteidigen"]
[Black "?"]
[Result "*"]
[Annotator "Schlage den Angreifer! (2)"]
[SetUp "1"]
[FEN "2r5/pk4p1/1p4Rb/3b4/4P3/1NP5/1PK4P/8 w - - 0 1"]
[PlyCount "1"]

{[%tqu "Schlage den Angreifer!","","",exd5,"",10]} 1. exd5 *

[Event "?"]
[Site "?"]
[Date "????.??.??"]
[Round "?"]
[White "Verteidigen"]
[Black "?"]
[Result "*"]
[Annotator "Schlage den Angreifer! (3)"]
[SetUp "1"]
[FEN "r3k3/8/6p1/1p1n1p2/4B3/1P4P1/2RK1P2/8 b - - 0 1"]
[PlyCount "1"]

{[%tqu "Schlage den Angreifer!","","",fxe4,"",10]} 1... fxe4 *

[Event "?"]
[Site "?"]
[Date "????.??.??"]
[Round "?"]
[White "Verteidigen"]
[Black "?"]
[Result "*"]
[Annotator "Schlage den Angreifer! (4)"]
[SetUp "1"]
[FEN "8/1k5p/1p3rp1/2b5/2PB3P/6P1/2P3K1/1R6 b - - 0 1"]
[PlyCount "1"]

{[%tqu "Schlage den Angreifer!","","",Bxd4,"",10]} 1... Bxd4 *

[Event "?"]
[Site "?"]
[Date "????.??.??"]
[Round "?"]
[White "Verteidigen"]
[Black "?"]
[Result "*"]
[Annotator "Schlage den Angreifer! (5)"]
[SetUp "1"]
[FEN "2b5/2r3kp/5np1/8/8/5P2/5P2/2R3KR b - - 0 1"]
[PlyCount "1"]

{[%tqu "Schlage den Angreifer!","","",Rxc1+,"",10]} 1... Rxc1+ *

[Event "?"]
[Site "?"]
[Date "????.??.??"]
[Round "?"]
[White "Verteidigen"]
[Black "?"]
[Result "*"]
[Annotator "Schlage den Angreifer! (6)"]
[SetUp "1"]
[FEN "8/1k5p/2p1prp1/4b3/6P1/2B4P/1P4K1/3R4 b - - 0 1"]
[PlyCount "1"]

{[%tqu "Schlage den Angreifer!","","",Bxc3,"",10]} 1... Bxc3 *

[Event "?"]
[Site "?"]
[Date "????.??.??"]
[Round "?"]
[White "Verteidigen"]
[Black "?"]
[Result "*"]
[Annotator "Schlage den Angreifer! (7)"]
[SetUp "1"]
[FEN "5k2/1b2r3/8/5p2/5p2/1P5P/3NRP2/1K6 w - - 0 1"]
[PlyCount "1"]

{[%tqu "Schlage den Angreifer!","","",Rxe7,"",10]} 1. Rxe7 *

[Event "?"]
[Site "?"]
[Date "????.??.??"]
[Round "?"]
[White "Verteidigen"]
[Black "?"]
[Result "*"]
[Annotator "Schlage den Angreifer! (8)"]
[SetUp "1"]
[FEN "3q4/4b1pk/7p/4p1B1/4P2P/4Q1P1/8/7K w - - 0 1"]
[PlyCount "1"]

{[%tqu "Schlage den Angreifer!","","",Bxe7,"",10]} 1. Bxe7 *

[Event "?"]
[Site "?"]
[Date "????.??.??"]
[Round "?"]
[White "Verteidigen"]
[Black "?"]
[Result "*"]
[Annotator "Schlage den Angreifer!(9)"]
[SetUp "1"]
[FEN "8/2p2pk1/1pr3p1/6n1/1P6/1P3B2/1K1R2P1/8 b - - 0 1"]
[PlyCount "1"]

{[%tqu "Schlage den Angreifer!","","",Nxf3,"",10]} 1... Nxf3 *

[Event "?"]
[Site "?"]
[Date "????.??.??"]
[Round "?"]
[White "Verteidigen"]
[Black "?"]
[Result "*"]
[Annotator "Schlage den Angreifer! (10)"]
[SetUp "1"]
[FEN "3q3r/5pk1/5p2/3Q4/8/1P5P/1P1B1PP1/6K1 w - - 0 1"]
[PlyCount "1"]

{[%tqu "Schlage den Angreifer!","","",Qxd8,"",10]} 1. Qxd8 *

[Event "?"]
[Site "?"]
[Date "????.??.??"]
[Round "?"]
[White "Verteidigen"]
[Black "?"]
[Result "*"]
[Annotator "Schlage den Angreifer! (11)"]
[SetUp "1"]
[FEN "8/1p3k2/2p1n1pb/5p2/2PNp3/1P4P1/2B1KP1P/8 w - - 0 1"]
[PlyCount "1"]

{[%tqu "Schlage den Angreifer!","","",Nxe6,"",10]} 1. Nxe6 *

[Event "?"]
[Site "?"]
[Date "????.??.??"]
[Round "?"]
[White "Verteidigen"]
[Black "?"]
[Result "*"]
[Annotator "Schlage den Angreifer! (12)"]
[SetUp "1"]
[FEN "4r1k1/3bRpp1/3p1n1p/8/2PP4/R1K3P1/7P/8 w - - 0 1"]
[PlyCount "1"]

{[%tqu "Schlage den Angreifer!","","",Rxe8+,"",10]} 1. Rxe8+ *

[Event "?"]
[Site "?"]
[Date "????.??.??"]
[Round "?"]
[White "Material"]
[Black "?"]
[Result "*"]
[Annotator "Schlage eine ungedeckte Figur"]
[SetUp "1"]
[FEN "r6r/pp2kppp/2p2n2/2b5/2BPP3/2P2N2/P3KPPP/R6R w - - 0 1"]
[PlyCount "1"]

{[%tqu "Schlage eine ungedeckte Figur","","",dxc5,"",10]} 1. dxc5 *

[Event "?"]
[Site "?"]
[Date "????.??.??"]
[Round "?"]
[White "Material"]
[Black "?"]
[Result "*"]
[Annotator "Schlage eine ungedeckte Figur"]
[SetUp "1"]
[FEN "r3r1k1/1ppq2pp/3b4/8/2PP4/2Q5/P3N1PP/R4RK1 b - - 0 1"]
[PlyCount "1"]

{[%tqu "Schlage eine ungedeckte Figur","","",Rxe2,"",10]} 1... Rxe2 *

[Event "?"]
[Site "?"]
[Date "????.??.??"]
[Round "?"]
[White "Material"]
[Black "?"]
[Result "*"]
[Annotator "Schlage eine ungedeckte Figur"]
[SetUp "1"]
[FEN "1r3r1k/1bp3pp/1p1b4/3B4/4P3/1PKN1N2/5P1P/2R3R1 b - - 0 1"]
[PlyCount "1"]

{[%tqu "Schlage eine ungedeckte Figur","","",Rxf3,"",10]} 1... Rxf3 *

[Event "?"]
[Site "?"]
[Date "????.??.??"]
[Round "?"]
[White "Material"]
[Black "?"]
[Result "*"]
[Annotator "Schlage eine ungedeckte Figur"]
[SetUp "1"]
[FEN "3rr1k1/1bp3pp/1p6/3P4/1N6/2RP1q2/2KQ1P1P/5B1R b - - 0 1"]
[PlyCount "1"]

{[%tqu "Schlage eine ungedeckte Figur","","",Qxh1,"",10]} 1... Qxh1 *

[Event "?"]
[Site "?"]
[Date "????.??.??"]
[Round "?"]
[White "Material"]
[Black "?"]
[Result "*"]
[Annotator "Schlage eine ungedeckte Figur!"]
[SetUp "1"]
[FEN "r4rk1/p1p1bqpp/2b5/8/3N4/2B5/P1P1QPPP/R4RK1 w - - 0 1"]
[PlyCount "1"]

{[%tqu "Schlage eine ungedeckte Figur!","Der schwarzfelddrige Läufer ist
gedeckt,aber...","der weißfeldrige.....",Nxc6,"",10]} 1. Nxc6 *

[Event "?"]
[Site "?"]
[Date "????.??.??"]
[Round "?"]
[White "Material"]
[Black "?"]
[Result "*"]
[Annotator "Schlage eine ungedeckte Figur!"]
[SetUp "1"]
[FEN "r3k2r/1p2qppp/p1n2n2/1Bb1p3/4P3/P4N2/1PQ2PPP/R1B1K2R b - - 0 1"]
[PlyCount "1"]

{[%tqu "Schlage eine ungedeckte Figur!","Nicht nur mit 'Figuren' kann man die
Figuren schlagen.","Schau dir alle Bauern an!",axb5,"",10]} 1... axb5 *

[Event "?"]
[Site "?"]
[Date "????.??.??"]
[Round "?"]
[White "Material"]
[Black "?"]
[Result "*"]
[Annotator "Schlage eine ungedeckte Figur!"]
[SetUp "1"]
[FEN "k3q3/1p3p2/p5pr/8/8/RP6/P2Q1PP1/5K2 w - - 0 1"]
[PlyCount "1"]

{[%tqu "Schlage eine ungedeckte Figur!","Nur eine ist ungedeckt!","Mit der
Dame, natürlich!",Qxh6,"",10]} 1. Qxh6 *

[Event "?"]
[Site "?"]
[Date "????.??.??"]
[Round "?"]
[White "Material"]
[Black "?"]
[Result "*"]
[Annotator "Schlage eine ungedeckte Figur!"]
[SetUp "1"]
[FEN "rn1q1rk1/p1p2pp1/1p6/6np/1PQ3b1/P1N3P1/5PBP/R1B2RK1 w - - 0 1"]
[PlyCount "1"]

{[%tqu "Schlage eine ungedeckte Figur!","Diagonale h1-a8","Der Läufer sztehr
auf dieser Diagonale bereit!",Bxa8,"",10]} 1. Bxa8 *

[Event "?"]
[Site "?"]
[Date "????.??.??"]
[Round "?"]
[White "Material"]
[Black "?"]
[Result "*"]
[Annotator "Schlage eine ungedeckte Figur!"]
[SetUp "1"]
[FEN "r2q1rk1/1b2bppp/p3p3/1p1nP3/1P1pNB1P/P2B1N2/5PP1/R2Q1RK1 b - - 0 1"]
[PlyCount "1"]

{[%tqu "Schlage eine ungedeckte Figur!","Hier ist natürlich nur eine einzige
ungedeckt.","Hüpfe mal hin!",Nxf4,"",10]} 1... Nxf4 *

[Event "?"]
[Site "?"]
[Date "????.??.??"]
[Round "?"]
[White "Material"]
[Black "?"]
[Result "*"]
[Annotator "Schlage eine ungedeckte Figur!"]
[SetUp "1"]
[FEN "r1r3k1/2q1bp1p/2pN2p1/pp2P3/4bP1n/P1B5/1PP1B1PP/1K1R3R w - - 0 1"]
[PlyCount "1"]

{[%tqu "Schlage eine ungedeckte Figur!","Auch zurück kann man hüpfen!","Mit
dem Springer, aber eine ungedeckte!",Nxe4,"",10]} 1. Nxe4 *

[Event "?"]
[Site "?"]
[Date "????.??.??"]
[Round "?"]
[White "Material"]
[Black "?"]
[Result "*"]
[Annotator "Schlage eine ungedeckte Figur!"]
[SetUp "1"]
[FEN "r4rk1/2pR1p1p/ppn3p1/7n/2B3q1/P3Q1P1/1PPN1P1P/2K4R b - - 0 1"]
[PlyCount "1"]

{[%tqu "Schlage eine ungedeckte Figur!","Schau dir die stärkste Figur von
Schwarz genau an.","Rückwärts und diagonal!(schief)",Qxd7,"",10]} 1... Qxd7 *

[Event "?"]
[Site "?"]
[Date "????.??.??"]
[Round "?"]
[White "Material"]
[Black "?"]
[Result "*"]
[Annotator "Schlage eine ungedeckte Figur!"]
[SetUp "1"]
[FEN "r1bqkbn1/pppp2pr/2n2p1p/4p3/2B1P3/2N2N2/PPPP1PPP/R1BQK2R w KQq - 0 1"]
[PlyCount "1"]

{[%tqu "Schlage eine ungedeckte Figur!","Es gibt eine ungedeckte Figur!!","Der
Läufer .........",Bxg8,"",10]} 1. Bxg8 *

[Event "?"]
[Site "?"]
[Date "2008.10.18"]
[Round "?"]
[White "Test1"]
[Black "?"]
[Result "*"]
[Annotator "Verteidigen"]
[SetUp "1"]
[FEN "rn4k1/p2n1ppp/8/8/3P4/5Q1P/P5PK/8 b - - 0 0"]
[PlyCount "1"]

{[%tqu "Verteidigen!","Welche Figur von Schwarz ist angregriffen?","Den Turm
verteidigen!",Nb6,"",10]} 1... Nb6 *

[Event "?"]
[Site "?"]
[Date "2008.10.18"]
[Round "?"]
[White "Test1"]
[Black "?"]
[Result "*"]
[Annotator "Verteidigen2"]
[SetUp "1"]
[FEN "4r1k1/3prp1p/2p2np1/6P1/2P5/3P3P/2R2PB1/2R3K1 b - - 0 1"]
[PlyCount "1"]

{[%tqu "Verteidigen","Wegziehen","Welche Figur ist angegriffen?",Nh5,"",10]} 
1... Nh5 *

[Event "?"]
[Site "?"]
[Date "2008.10.18"]
[Round "?"]
[White "Test1"]
[Black "?"]
[Result "*"]
[Annotator "Schlagen"]
[SetUp "1"]
[FEN "3r2k1/6pp/1p2np2/p7/1b2R3/1P6/5PPP/5RK1 w - - 0 0"]
[PlyCount "1"]

{[%tqu "Schlage eine ungedeckte Figur!","die ungedeckte!","Den Sp.....",Rxe6,
"",10]} 1. Rxe6 *

[Event "?"]
[Site "?"]
[Date "2008.10.18"]
[Round "?"]
[White "Test1"]
[Black "?"]
[Result "*"]
[Annotator "Angreifen"]
[SetUp "1"]
[FEN "r4k2/b4ppp/8/3P4/8/8/P4PPP/RN4K1 b - - 0 0"]
[PlyCount "1"]

{[%tqu "Greife an!","Eine ungedeckte Figur!","Den Turm!",Bd4,"",10]} 1... Bd4 *

[Event "?"]
[Site "?"]
[Date "2008.10.18"]
[Round "?"]
[White "Test1"]
[Black "?"]
[Result "*"]
[Annotator "Verteidigen"]
[SetUp "1"]
[FEN "1rbn4/2p3kp/2N3p1/8/8/1P3B1P/P5K1/5R2 b - - 0 0"]
[PlyCount "1"]

{[%tqu "Verteidige","Schlagen","den Angreifer",Nxc6,"",10]} 1... Nxc6 *

[Event "?"]
[Site "?"]
[Date "2008.10.18"]
[Round "?"]
[White "Test1"]
[Black "?"]
[Result "*"]
[Annotator "Schlagen"]
[SetUp "1"]
[FEN "8/4K2k/4B3/4B3/5q2/5N2/8/8 b - - 0 1"]
[PlyCount "1"]

{[%tqu "Schlage eine ungedeckte Figur","die andere","bitte wieder die andere",
Qxf3,"",10]} 1... Qxf3 *

[Event "?"]
[Site "?"]
[Date "2008.10.18"]
[Round "?"]
[White "Schach geben"]
[Black "?"]
[Result "*"]
[Annotator "Gib Schach!"]
[SetUp "1"]
[FEN "3r1k2/1p1n2pp/1p3n2/5B2/5B2/P5P1/1P3PKP/2R5 w - - 0 1"]
[PlyCount "1"]

{[%tqu "Gib Schach!","","",Bd6+,"",10]} 1. Bd6+ *

[Event "?"]
[Site "?"]
[Date "2008.10.18"]
[Round "?"]
[White "Schach geben"]
[Black "?"]
[Result "*"]
[Annotator "Gib Schach!"]
[SetUp "1"]
[FEN "2r5/1p1nkp2/5b2/4p3/4P3/2NK2B1/PP6/7R w - - 0 1"]
[PlyCount "1"]

{[%tqu "Gib Schach!","","",Nd5+,"",10]} 1. Nd5+ *

[Event "?"]
[Site "?"]
[Date "2008.10.18"]
[Round "?"]
[White "Schach geben"]
[Black "?"]
[Result "*"]
[Annotator "Gib Schach!"]
[SetUp "1"]
[FEN "r3k2r/p4ppp/2p1p3/8/3b4/6P1/PP3PBP/2R2RK1 w kq - 0 1"]
[PlyCount "1"]

{[%tqu "Gib Schach!","","",Bxc6+,"",10]} 1. Bxc6+ *

[Event "?"]
[Site "?"]
[Date "2008.10.18"]
[Round "?"]
[White "Schach geben"]
[Black "?"]
[Result "*"]
[Annotator "Gib Schach!"]
[SetUp "1"]
[FEN "8/1p2kppp/p4n2/8/2K5/1P3B2/P4PPP/8 b - - 0 1"]
[PlyCount "1"]

{[%tqu "Gib Schach!","","",b5+,"",10]} 1... b5+ *

[Event "?"]
[Site "?"]
[Date "2008.10.18"]
[Round "?"]
[White "Schach geben"]
[Black "?"]
[Result "*"]
[Annotator "Gib Schach!"]
[SetUp "1"]
[FEN "3r4/ppp1kpp1/2n5/4p3/2P1P3/2N5/PP3KPP/4R3 w - - 0 1"]
[PlyCount "1"]

{[%tqu "Gib Schach!","","",Nd5+,"",10]} 1. Nd5+ *

[Event "?"]
[Site "?"]
[Date "2008.10.18"]
[Round "?"]
[White "Schach geben"]
[Black "?"]
[Result "*"]
[Annotator "Gib Schach!"]
[SetUp "1"]
[FEN "7r/8/4k1b1/4p3/4Pp2/5P2/3RNK2/8 b - - 0 1"]
[PlyCount "1"]

{[%tqu "Gib Schach!","","",Rh2+,"",10]} 1... Rh2+ *

[Event "?"]
[Site "?"]
[Date "2008.10.18"]
[Round "?"]
[White "Schach geben"]
[Black "?"]
[Result "*"]
[Annotator "Gib Schach!"]
[SetUp "1"]
[FEN "rnbqkb1r/pp2pp1p/3p2p1/2pP4/4P3/2N5/PPP2PPP/R1BQKBNR w KQkq - 0 1"]
[PlyCount "1"]

{[%tqu "Gib Schach!","","",Bb5+,"",10]} 1. Bb5+ *

[Event "?"]
[Site "?"]
[Date "2008.10.18"]
[Round "?"]
[White "Schach geben"]
[Black "?"]
[Result "*"]
[Annotator "Gib Schach!"]
[SetUp "1"]
[FEN "r3kb1r/ppp1nppp/3q4/4PbB1/3p4/5N2/PPP1BPPP/R2QK3 b Qkq - 0 1"]
[PlyCount "1"]

{[%tqu "Gib Schach!","","",Qb4+,"",10]} 1... Qb4+ *

[Event "?"]
[Site "?"]
[Date "2008.10.18"]
[Round "?"]
[White "Schach geben"]
[Black "?"]
[Result "*"]
[Annotator "Gib Schach!"]
[SetUp "1"]
[FEN "3k4/6p1/2p1pp2/2PnN3/7P/6P1/5P2/6K1 w - - 0 1"]
[PlyCount "1"]

{[%tqu "Gib Schach!","","",Nxc6+,"",10]} 1. Nxc6+ *

[Event "?"]
[Site "?"]
[Date "2008.10.18"]
[Round "?"]
[White "Schach geben"]
[Black "?"]
[Result "*"]
[Annotator "Gib Schach!"]
[SetUp "1"]
[FEN "r3k2r/ppp1bppp/8/8/1n3B2/2N5/PPP2PPP/R3K2R b KQkq - 0 1"]
[PlyCount "1"]

{[%tqu "Gib Schach!","","",Nxc2+,"",10]} 1... Nxc2+ *

[Event "?"]
[Site "?"]
[Date "2008.10.18"]
[Round "?"]
[White "Schach geben"]
[Black "?"]
[Result "*"]
[Annotator "Gib Schach!"]
[SetUp "1"]
[FEN "k2r4/p1p4p/4q1p1/P4b2/2P2P2/6N1/Q6P/1R4K1 w - - 0 1"]
[PlyCount "1"]

{[%tqu "Gib Schach!","","",Qg2+,"",10]} 1. Qg2+ *

[Event "?"]
[Site "?"]
[Date "2008.10.18"]
[Round "?"]
[White "Schach geben"]
[Black "?"]
[Result "*"]
[Annotator "Gib Schach!"]
[SetUp "1"]
[FEN "3r2k1/3r1ppp/8/8/8/8/4RPPP/4R1K1 w - - 0 1"]
[PlyCount "1"]

{[%tqu "Gib Schach!","","",Re8+,"",10]} 1. Re8+ *

[Event "?"]
[Site "?"]
[Date "2008.11.18"]
[Round "?"]
[White "Verteidigen"]
[Black "?"]
[Result "*"]
[Annotator "Schach parieren"]
[SetUp "1"]
[FEN "1k6/1pp3pp/pb4r1/8/8/2B5/PP3P1P/5RK1 w - - 0 1"]
[PlyCount "1"]

{[%tqu "Schach parieren","","",Kh1,"",10]} 1. Kh1 *

[Event "?"]
[Site "?"]
[Date "2008.11.18"]
[Round "?"]
[White "Verteidigen"]
[Black "?"]
[Result "*"]
[Annotator "Schach parieren"]
[SetUp "1"]
[FEN "6k1/1p3pp1/p6p/8/1N2bP2/P5P1/1PPr3P/4R2K w - - 0 1"]
[PlyCount "1"]

{[%tqu "Schach parieren","","",Rxe4,"",10]} 1. Rxe4 *

[Event "?"]
[Site "?"]
[Date "2008.11.18"]
[Round "?"]
[White "Verteidigen"]
[Black "?"]
[Result "*"]
[Annotator "Schach parieren"]
[SetUp "1"]
[FEN "3r1bk1/1p4p1/p3Q2p/2q5/8/P5P1/1P3PP1/1B2R1K1 b - - 0 1"]
[PlyCount "1"]

{[%tqu "Schach parieren","","",Kh8,"",10]} 1... Kh8 *

[Event "?"]
[Site "?"]
[Date "2008.11.18"]
[Round "?"]
[White "Verteidigen"]
[Black "?"]
[Result "*"]
[Annotator "Schach parieren"]
[SetUp "1"]
[FEN "3r1bk1/1pq2p1p/p1b2Np1/3p3N/8/5Q1P/PPP2PP1/5RK1 b - - 0 1"]
[PlyCount "1"]

{[%tqu "Schach parieren","","",Kh8,"",10]} 1... Kh8 *

[Event "?"]
[Site "?"]
[Date "2008.11.18"]
[Round "?"]
[White "Verteidigen"]
[Black "?"]
[Result "*"]
[Annotator "Schach parieren"]
[SetUp "1"]
[FEN "2rR2k1/1p3ppp/p3b3/6B1/8/7P/PP3PP1/6K1 b - - 0 1"]
[PlyCount "1"]

{[%tqu "Schach parieren","","",Rxd8,"",10]} 1... Rxd8 *

[Event "?"]
[Site "?"]
[Date "2008.11.18"]
[Round "?"]
[White "Verteidigen"]
[Black "?"]
[Result "*"]
[Annotator "Schach parieren"]
[SetUp "1"]
[FEN "5n2/1p3k1p/pq3Qp1/4P3/8/4N3/PP4PP/6K1 b - - 0 1"]
[PlyCount "3"]

{[%tqu "Schach parieren","","",Qxf6,"",10]} 1... Qxf6 (1... Ke8 $4 2. Qxb6) 2.
exf6 Kxf6 *

[Event "?"]
[Site "?"]
[Date "2008.11.18"]
[Round "?"]
[White "Verteidigen"]
[Black "?"]
[Result "*"]
[Annotator "Schach parieren"]
[SetUp "1"]
[FEN "3rq1k1/p1pn1p1p/1p3Np1/8/5Q2/1P5P/P1P2PP1/5RK1 b - - 0 1"]
[PlyCount "1"]

{[%tqu "Schach parieren","","",Nxf6,"",10]} 1... Nxf6 *

[Event "?"]
[Site "?"]
[Date "2008.11.18"]
[Round "?"]
[White "Verteidigen"]
[Black "?"]
[Result "*"]
[Annotator "Schach parieren"]
[SetUp "1"]
[FEN "r2qkbnr/1p2pp1p/p2p2p1/1BpP4/4P1n1/2N2N2/PPP2PPP/R2QK2R b KQkq - 0 1"]
[PlyCount "1"]

{[%tqu "Schach parieren","","",axb5,"",10]} 1... axb5 *

[Event "?"]
[Site "?"]
[Date "2008.11.18"]
[Round "?"]
[White "Verteidigen"]
[Black "?"]
[Result "*"]
[Annotator "Schach parieren"]
[SetUp "1"]
[FEN "kb6/p6r/2B2pp1/5n2/8/8/5PK1/4R3 b - - 0 1"]
[PlyCount "1"]

{[%tqu "Schach parieren","","",Rb7,"",10]} 1... Rb7 *

[Event "?"]
[Site "?"]
[Date "2008.11.18"]
[Round "?"]
[White "Verteidigen"]
[Black "?"]
[Result "*"]
[Annotator "Schach parieren"]
[SetUp "1"]
[FEN "r6k/1p1q3p/p7/1n2Q3/8/1B6/PP6/1KR5 b - - 0 1"]
[PlyCount "1"]

{[%tqu "Schach parieren","","",Qg7,"",10]} 1... Qg7 *

[Event "?"]
[Site "?"]
[Date "2008.11.18"]
[Round "?"]
[White "Verteidigen"]
[Black "?"]
[Result "*"]
[Annotator "Schach parieren"]
[SetUp "1"]
[FEN "4r1k1/1p3ppp/p4n2/8/1b6/8/PP2NPPP/3NKR2 w - - 0 1"]
[PlyCount "1"]

{[%tqu "Schach parieren","","",Ndc3,"",10]} 1. Ndc3 *

[Event "?"]
[Site "?"]
[Date "2008.11.18"]
[Round "?"]
[White "Verteidigen"]
[Black "?"]
[Result "*"]
[Annotator "Schach parieren"]
[SetUp "1"]
[FEN "r1b1k2r/bp1q1ppp/p1n2n2/3p4/8/2N1RBN1/PPPB1PPP/2RQ2K1 b kq - 0 1"]
[PlyCount "1"]

{[%tqu "Schach parieren","","",Bxe3,"",10]} 1... Bxe3 *

[Event "?"]
[Site "?"]
[Date "2008.11.19"]
[Round "?"]
[White "Matt in einem Zug"]
[Black "?"]
[Result "*"]
[Annotator "Notebook,Acer"]
[SetUp "1"]
[FEN "7k/8/8/8/8/8/2r3r1/3RK3 b - - 0 1"]
[PlyCount "1"]

{[%tqu "Matt in einem Zug","","",Rg1#,"",10]} 1... Rg1# *

[Event "?"]
[Site "?"]
[Date "2008.11.19"]
[Round "?"]
[White "Matt in einem Zug"]
[Black "?"]
[Result "*"]
[Annotator "Notebook,Acer"]
[SetUp "1"]
[FEN "8/8/8/k7/b7/8/3K4/1R4Q1 w - - 0 1"]
[PlyCount "1"]

{[%tqu "Matt in einem Zug","","",Qb6#,"",10]} 1. Qb6# *

[Event "?"]
[Site "?"]
[Date "2008.11.19"]
[Round "?"]
[White "Matt in einem Zug"]
[Black "?"]
[Result "*"]
[Annotator "Notebook,Acer"]
[SetUp "1"]
[FEN "8/8/B1r5/2Pk4/3P4/3K4/8/8 w - - 0 1"]
[PlyCount "1"]

{[%tqu "Matt in einem Zug","","",Bc4#,"",10]} 1. Bc4# *

[Event "?"]
[Site "?"]
[Date "2008.11.19"]
[Round "?"]
[White "Matt in einem Zug"]
[Black "?"]
[Result "*"]
[Annotator "Notebook,Acer"]
[SetUp "1"]
[FEN "5rk1/5p1p/6p1/8/6N1/6P1/5P1P/B5K1 w - - 0 1"]
[PlyCount "1"]

{[%tqu "Matt in einem Zug","","",Nh6#,"",10]} 1. Nh6# *

[Event "?"]
[Site "?"]
[Date "2008.11.19"]
[Round "?"]
[White "Matt in einem Zug"]
[Black "?"]
[Result "*"]
[Annotator "Notebook,Acer"]
[SetUp "1"]
[FEN "6k1/5p1p/8/8/8/1r4P1/1B2RP1P/6K1 w - - 0 1"]
[PlyCount "1"]

{[%tqu "Matt in einem Zug","","",Re8#,"",10]} 1. Re8# *

[Event "?"]
[Site "?"]
[Date "2008.11.19"]
[Round "?"]
[White "Matt in einem Zug"]
[Black "?"]
[Result "*"]
[Annotator "Notebook,Acer"]
[SetUp "1"]
[FEN "1k4r1/p1p5/1p6/3N4/2P3n1/1P6/P6P/4R2K b - - 0 1"]
[PlyCount "1"]

{[%tqu "Matt in einem Zug","","",Nf2#,"",10]} 1... Nf2# *

[Event "?"]
[Site "?"]
[Date "2008.11.19"]
[Round "?"]
[White "Matt in einem Zug"]
[Black "?"]
[Result "*"]
[Annotator "Notebook,Acer"]
[SetUp "1"]
[FEN "6k1/b4p1p/6p1/8/8/3q1Q2/P5PP/K4R2 b - - 0 1"]
[PlyCount "1"]

{[%tqu "Matt in einem Zug","","",Bd4#,"",10]} 1... Bd4# *

[Event "?"]
[Site "?"]
[Date "2008.11.19"]
[Round "?"]
[White "Matt in einem Zug"]
[Black "?"]
[Result "*"]
[Annotator "Notebook,Acer"]
[SetUp "1"]
[FEN "4r1k1/5p1p/5Bp1/8/7r/1PK2P2/2P5/1Rb3R1 b - - 0 1"]
[PlyCount "1"]

{[%tqu "Matt in einem Zug","","",Re3#,"",10]} 1... Re3# *

[Event "?"]
[Site "?"]
[Date "2008.11.19"]
[Round "?"]
[White "Matt in einem Zug"]
[Black "?"]
[Result "*"]
[Annotator "Notebook,Acer"]
[SetUp "1"]
[FEN "k7/3Q1p1p/1P4p1/8/8/6P1/5PPK/rr6 w - - 0 1"]
[PlyCount "1"]

{[%tqu "Matt in einem Zug","","",Qc8#,"",10]} 1. Qc8# *

[Event "?"]
[Site "?"]
[Date "2008.11.19"]
[Round "?"]
[White "Matt in einem Zug"]
[Black "?"]
[Result "*"]
[Annotator "Notebook,Acer"]
[SetUp "1"]
[FEN "7k/1q2r3/7p/8/5Q2/2RB2Pb/5P1P/6K1 w - - 0 1"]
[PlyCount "1"]

{[%tqu "Matt in einem Zug","","",Qf8#,"",10]} 1. Qf8# *

[Event "?"]
[Site "?"]
[Date "2008.11.19"]
[Round "?"]
[White "Matt in einem Zug"]
[Black "?"]
[Result "*"]
[Annotator "Notebook,Acer"]
[SetUp "1"]
[FEN "4brk1/pQ4pp/1pn5/5qN1/2P5/1P5P/PB2RPP1/6K1 w - - 0 1"]
[PlyCount "1"]

{[%tqu "Matt in einem Zug","","",Qxg7#,"",10]} 1. Qxg7# *

[Event "?"]
[Site "?"]
[Date "2008.11.19"]
[Round "?"]
[White "Matt in einem Zug"]
[Black "?"]
[Result "*"]
[Annotator "Notebook,Acer"]
[SetUp "1"]
[FEN "7k/b7/5R2/6P1/1B5K/5b1P/8/4n3 b - - 0 1"]
[PlyCount "1"]

{[%tqu "Matt in einem Zug","","",Bf2#,"",10]} 1... Bf2# *

